{
  "images" : [
    {
      "filename" : "7CF322857D8B4C0B8F6B09CB17157DA3.png",
      "idiom" : "universal",
      "scale" : "1x"
    },
    {
      "filename" : "7CF322857D8B4C0B8F6B09CB17157DA3@2x.png",
      "idiom" : "universal",
      "scale" : "2x"
    },
    {
      "filename" : "7CF322857D8B4C0B8F6B09CB17157DA3@3x.png",
      "idiom" : "universal",
      "scale" : "3x"
    }
  ],
  "info" : {
    "author" : "xcode",
    "version" : 1
  }
}
